Joining Data in R with dplyr
…
# Join albums to songs using inner_join()
inner_join(songs, albums, by = "album")

## # A tibble: 3 x 6
##             song                album  first      last        band  year
##            <chr>                <chr>  <chr>     <chr>       <chr> <int>
## 1  Come Together           Abbey Road   John    Lennon The Beatles  1969
## 2       Dream On            Aerosmith Steven     Tyler   Aerosmith  1973
## 3 Hello, Goodbye Magical Mystery Tour   Paul McCartney The Beatles  1967

# Join bands to artists using full_join()
full_join(artists, bands, by = c("first", "last"))

## # A tibble: 21 x 4
##     first      last instrument               band
##     <chr>     <chr>      <chr>              <chr>
##  1  Jimmy   Buffett     Guitar  The Coral Reefers
##  2 George  Harrison     Guitar        The Beatles
##  3   Mick    Jagger     Vocals The Rolling Stones
##  4    Tom     Jones     Vocals               <NA>
##  5   Davy     Jones     Vocals               <NA>
##  6   John    Lennon     Guitar        The Beatles
##  7   Paul McCartney       Bass        The Beatles
##  8  Jimmy      Page     Guitar       Led Zeppelin
##  9    Joe     Perry     Guitar               <NA>
## 10  Elvis   Presley     Vocals               <NA>
## # ... with 11 more rows
…
Choose your joins

Youre getting the hang of pipes now! They are a very useful way to combine multiple joins to make a single dataset.

Lets craft one more dataset before moving to Chapter 2. One of the most useful ways to combine data is to place all of the values of all of the datasets into a single table.

Instructions Write a pipe that combines artists, bands, songs, and albums (in that order) into a single table, such that it contains all of the information in the datasets.

# Create one table that combines all information
artists %>%
 full_join(bands, by = c("first", "last")) %>%
 full_join(songs, by = c("first", "last")) %>%
 full_join(albums, by = c("album", "band"))

## # A tibble: 29 x 7
##     first      last instrument               band             song
##     <chr>     <chr>      <chr>              <chr>            <chr>
##  1  Jimmy   Buffett     Guitar  The Coral Reefers             <NA>
##  2 George  Harrison     Guitar        The Beatles             <NA>
##  3   Mick    Jagger     Vocals The Rolling Stones             <NA>
##  4    Tom     Jones     Vocals               <NA> It's Not Unusual
##  5   Davy     Jones     Vocals               <NA>             <NA>
##  6   John    Lennon     Guitar        The Beatles    Come Together
##  7   Paul McCartney       Bass        The Beatles   Hello, Goodbye
##  8  Jimmy      Page     Guitar       Led Zeppelin             <NA>
##  9    Joe     Perry     Guitar               <NA>             <NA>
## 10  Elvis   Presley     Vocals               <NA>             <NA>
## # ... with 19 more rows, and 2 more variables: album <chr>, year <int>
…
jimi %>% 
  # Bind jimi into a single data frame
  bind_rows(.id = "album") %>% 
  # Make a complete data frame
  left_join(discography, by = "album")

## # A tibble: 39 x 4
##                  album                     song   length  year
##                  <chr>                    <chr>   <time> <int>
##  1 Are You Experienced              Purple Haze 02:46:00  1967
##  2 Are You Experienced         Manic Depression 03:46:00  1967
##  3 Are You Experienced                  Hey Joe 03:23:00  1967
##  4 Are You Experienced         May This Be Love 03:14:00  1967
##  5 Are You Experienced       I Don't Live Today 03:55:00  1967
##  6 Are You Experienced      The Wind Cries Mary 03:21:00  1967
##  7 Are You Experienced                     Fire 02:34:00  1967
##  8 Are You Experienced Third Stone from the Sun 06:40:00  1967
##  9 Are You Experienced                Foxy Lady 03:15:00  1967
## 10 Are You Experienced     Are You Experienced? 03:55:00  1967
## # ... with 29 more rows

Bind columns

Lets make a compilation of Hank Williams 67 singles. To do this, you can use hank_years and hank_charts:

hank_years contains the name and release year of each of Hank Williams 67 singles. hank_charts contains the name of each of Hank Williams 67 singles as well as the highest position it earned on the Billboard sales charts. Each dataset contains the same songs, but hank_years is arranged chronologically by year, while hank_charts is arranged alphabetically by song title.

Instructions Examine hank_years and hank_charts. How should you bind the two datasets? Use arrange() to reorder hank_years alphabetically by song title. Select just the year column of the result. Bind the year column to hank_charts. arrange() the resulting dataset chronologically by year, then alphabetically by song title within each year.

# Examine hank_years and hank_charts
hank_years

## # A tibble: 67 x 2
##     year                                    song
##    <int>                                   <chr>
##  1  1947                         Move It On Over
##  2  1947    My Love for You (Has Turned to Hate)
##  3  1947 Never Again (Will I Knock on Your Door)
##  4  1947    On the Banks of the Old Ponchartrain
##  5  1947                            Pan American
##  6  1947             Wealth Won't Save Your Soul
##  7  1948                   A Mansion on the Hill
##  8  1948                           Honky Tonkin'
##  9  1948                         I Saw the Light
## 10  1948                   I'm a Long Gone Daddy
## # ... with 57 more rows

hank_charts

## # A tibble: 67 x 2
##                               song  peak
##                              <chr> <int>
##  1 (I Heard That) Lonesome Whistle     9
##  2    (I'm Gonna) Sing, Sing, Sing    NA
##  3                A Home in Heaven    NA
##  4           A Mansion on the Hill    12
##  5            A Teardrop on a Rose    NA
##  6       At the First Fall of Snow    NA
##  7      Baby, We're Really in Love     4
##  8               California Zephyr    NA
##  9                     Calling You    NA
## 10                Cold, Cold Heart     1
## # ... with 57 more rows

hank_years %>% 
  # Reorder hank_years alphabetically by song title
  arrange(song) %>% 
  # Select just the year column
  select(year) %>% 
  # Bind the year column
  bind_cols(hank_charts) %>% 
  # Arrange the finished dataset
  arrange(year, song)

## # A tibble: 67 x 3
##     year                                    song  peak
##    <int>                                   <chr> <int>
##  1  1947                         Move It On Over     4
##  2  1947    My Love for You (Has Turned to Hate)    NA
##  3  1947 Never Again (Will I Knock on Your Door)    NA
##  4  1947    On the Banks of the Old Ponchartrain    NA
##  5  1947                            Pan American    NA
##  6  1947             Wealth Won't Save Your Soul    NA
##  7  1948                   A Mansion on the Hill    12
##  8  1948                           Honky Tonkin'    14
##  9  1948                  I'm Satisfied with You    NA
## 10  1948   I Just Don't Like This Kind of Living     5
## # ... with 57 more rows
…
##  3            In the Closet     6
##  4       She Drives Me Wild    NA
##  5        Remember the Time     3
##  6   Can't Let Her Get Away    NA
##  7           Heal the World    27
##  8           Black or White     1
##  9                Who Is It    14
## 10            Give In to Me    NA
## 11        Will You Be There     7
## 12           Keep the Faith    NA
## 13            Gone Too Soon    NA
## 14                Dangerous    NA
## 
## $HIStory
## # A tibble: 30 x 2
##                            song  peak
##                           <chr> <int>
##  1                  Billie Jean    NA
##  2     The Way You Make Me Feel    NA
##  3               Black or White    NA
##  4                Rock with You    NA
##  5         She's Out of My Life    NA
##  6                          Bad    NA
##  7 I Just Can't Stop Loving You    NA
##  8            Man in the Mirror    NA
##  9                     Thriller    NA
## 10                      Beat It    NA
## # ... with 20 more rows
## 
## $Invincible
…
more_bands

## # A tibble: 42 x 3
##                        band   first   last
##                       <chr>   <chr>  <chr>
##  1      Buffalo Springfield Stephen Stills
##  2      Buffalo Springfield   Dewey Martin
##  3      Buffalo Springfield   Bruce Palmer
##  4      Buffalo Springfield  Richie  Furay
##  5      Buffalo Springfield    Neil  Young
##  6 Electric Light Orchestra     Roy   Wood
##  7 Electric Light Orchestra    Jeff  Lynne
##  8 Electric Light Orchestra     Bev  Bevan
##  9 Graham Bond Organisation  Graham   Bond
## 10 Graham Bond Organisation    Jack  Bruce
## # ... with 32 more rows

more_artists

## # A tibble: 48 x 3
##      first            last instrument
##      <chr>           <chr>      <chr>
##  1   Allan          Clarke     vocals
##  2 Benmont           Tench  keyboards
##  3     Bev           Bevan      drums
##  4     Bob           Dylan     guitar
##  5   Bruce          Palmer       bass
##  6   Chris           Dreja     guitar
##  7   Chris         Hillman       bass
##  8   David          Crosby     guitar
##  9   Dewey          Martin      drums
## 10    Dick Heckstall-Smith  saxophone
## # ... with 38 more rows
…
## $AllstarFull
## # A tibble: 8 x 1
##           var
##         <chr>
## 1    playerID
## 2      yearID
## 3     gameNum
## 4      gameID
## 5      teamID
## 6        lgID
## 7          GP
## 8 startingPos
## 
## $Appearances
## # A tibble: 21 x 1
##          var
##        <chr>
##  1    yearID
##  2    teamID
##  3      lgID
##  4  playerID
##  5     G_all
##  6        GS
##  7 G_batting
##  8 G_defense
##  9       G_p
## 10       G_c
## # ... with 11 more rows
## 
## $AwardsManagers
…
## 
## $AwardsSharePlayers
## # A tibble: 7 x 1
##          var
##        <chr>
## 1    awardID
## 2     yearID
## 3       lgID
## 4   playerID
## 5  pointsWon
## 6  pointsMax
## 7 votesFirst
## 
## $Batting
## # A tibble: 22 x 1
##         var
##       <chr>
##  1 playerID
##  2   yearID
##  3    stint
##  4   teamID
##  5     lgID
##  6        G
##  7       AB
##  8        R
##  9        H
## 10      X2B
## # ... with 12 more rows
## 
## $battingLabels
## # A tibble: 2 x 1
##        var
##      <chr>
## 1 variable
## 2    label
## 
## $BattingPost
## # A tibble: 22 x 1
##         var
##       <chr>
##  1   yearID
##  2    round
##  3 playerID
##  4   teamID
##  5     lgID
##  6        G
##  7       AB
##  8        R
##  9        H
## 10      X2B
## # ... with 12 more rows
## 
## $CollegePlaying
…
##         var
##       <chr>
##  1 playerID
##  2   yearID
##  3   teamID
##  4     lgID
##  5 inseason
##  6     half
##  7        G
##  8        W
##  9        L
## 10     rank
## 
## $Master
## # A tibble: 26 x 1
##             var
##           <chr>
##  1     playerID
##  2    birthYear
##  3   birthMonth
##  4     birthDay
##  5 birthCountry
##  6   birthState
##  7    birthCity
##  8    deathYear
##  9   deathMonth
## 10     deathDay
## # ... with 16 more rows
## 
## $Pitching
## # A tibble: 30 x 1
##         var
##       <chr>
##  1 playerID
##  2   yearID
##  3    stint
##  4   teamID
##  5     lgID
##  6        W
##  7        L
##  8        G
##  9       GS
## 10       CG
## # ... with 20 more rows
## 
## $pitchingLabels
## # A tibble: 2 x 1
##        var
##      <chr>
## 1 variable
## 2    label
## 
## $PitchingPost
## # A tibble: 30 x 1
##         var
##       <chr>
##  1 playerID
##  2   yearID
##  3    round
##  4   teamID
##  5     lgID
##  6        W
##  7        L
##  8        G
##  9       GS
## 10       CG
## # ... with 20 more rows
## 
## $Salaries
…
## # A tibble: 9 x 1
##            var
##          <chr>
## 1       yearID
## 2        round
## 3 teamIDwinner
## 4   lgIDwinner
## 5  teamIDloser
## 6    lgIDloser
## 7         wins
## 8       losses
## 9         ties
## 
## $Teams
## # A tibble: 48 x 1
##         var
##       <chr>
##  1   yearID
##  2     lgID
##  3   teamID
##  4 franchID
##  5    divID
##  6     Rank
##  7        G
##  8    Ghome
##  9        W
## 10        L
## # ... with 38 more rows
## 
## $TeamsFranchises
…
Instructions Bind the data frames in lahmanNames into a single table that includes a new column called dataframe, which contains the names of the data frames. Group the result by var. Tally the number of appearances of each var. Filter the data to only variables that appear more than once. Arrange the results so that the most frequently used variables appear before less frequently used variables.

lahmanNames %>%  
  # Bind the data frames in lahmanNames
   bind_rows(.id = "dataframe") %>%
  # Group the result by var
  group_by(var) %>%
  # Tally the number of appearances
  tally() %>%
  # Filter the data
  filter(n > 1) %>% 
  # Arrange the results
  arrange(desc(n))

## # A tibble: 59 x 2
##         var     n
##       <chr> <int>
##  1   yearID    21
##  2 playerID    19
##  3     lgID    17
##  4   teamID    13
##  5        G    10
##  6        L     6
##  7        W     6
##  8       BB     5
##  9       CS     5
## 10       GS     5
## # ... with 49 more rows
…
Instructions Recalculate the list of players who do not appear in Salaries with the anti_join() function. Then left join them to Appearances. Group the data by playerID and calculate the total_games that each player played. This will be the sum() of G_all, ignoring NAs . Arrange the summarized data in descending order by total_games.

players %>% 
  # Find all players who do not appear in Salaries
  anti_join(Salaries, by = "playerID") %>% 
  # Join them to Appearances
  left_join(Appearances, by = "playerID") %>% 
  # Calculate total_games for each player
  group_by(playerID) %>%
  summarise(total_games = sum(G_all, na.rm = TRUE)) %>%
  # Arrange in descending order by total_games
  arrange(desc(total_games))

## # A tibble: 13,958 x 2
##     playerID total_games
##        <chr>       <int>
##  1 yastrca01        3308
##  2 aaronha01        3298
##  3  cobbty01        3034
##  4 musiast01        3026
##  5  mayswi01        2992
##  6 robinbr01        2896
##  7 kalinal01        2834
##  8 collied01        2824
##  9 robinfr02        2808
## 10 wagneho01        2795
## # ... with 13,948 more rows
…
Find the unsalaried players. Left join Batting to the unsalaried players. Group by player (e.g.playerID). Calculate the sum of at-bats for each player as total_at_bat; this will be the sum of the AB variable in Batting, ignoring all NAs. Arrange in descending order of at-bats.

players %>%
  # Find unsalaried players
  anti_join(Salaries, by = "playerID") %>%
  # Join Batting to the unsalaried players
  left_join(Batting, by = "playerID") %>%
  # Group by player
  group_by(playerID) %>%
  # Sum at-bats for each player
  summarise(total_at_bat = sum(AB, na.rm= TRUE)) %>%
  # Arrange in descending order
  arrange(desc(total_at_bat))

## # A tibble: 13,958 x 2
##     playerID total_at_bat
##        <chr>        <int>
##  1 aaronha01        12364
##  2 yastrca01        11988
##  3  cobbty01        11434
##  4 musiast01        10972
##  5  mayswi01        10881
##  6 robinbr01        10654
##  7 wagneho01        10430
##  8 brocklo01        10332
##  9 ansonca01        10277
## 10 aparilu01        10230
## # ... with 13,948 more rows
…
Filter Appearances against nominated to get the information in Appearances for all nominated players. Use dplyr methods to find the last year played by player. Call this last_year within your summarize() call. Left join the results to the full HallOfFame dataset. Use dplyr methods to spot unusual observations.

Appearances %>% 
  # Filter Appearances against nominated
  semi_join(nominated, by = "playerID") %>% 
  # Find last year played by player
  group_by(playerID) %>% 
  summarise(last_year = max(yearID)) %>% 
  # Join to full HallOfFame
  left_join(HallOfFame, by = "playerID") %>% 
  # Filter for unusual observations
  filter(last_year>=yearID) 

## # A tibble: 39 x 10
##     playerID last_year yearID         votedBy ballots needed votes
##        <chr>     <dbl>  <int>           <chr>   <int>  <int> <int>
##  1 cissebi01      1938   1937           BBWAA     201    151     1
##  2 cochrmi01      1937   1936           BBWAA     226    170    80
##  3  deandi01      1947   1945           BBWAA     247    186    17
##  4  deandi01      1947   1946    Final Ballot     263    198    45
##  5  deandi01      1947   1946 Nominating Vote     202     NA    40
##  6  deandi01      1947   1947           BBWAA     161    121    88
##  7 dickebi01      1946   1945           BBWAA     247    186    17
##  8 dickebi01      1946   1946 Nominating Vote     202     NA    40
##  9 dickebi01      1946   1946    Final Ballot     263    198    32
## 10 dimagjo01      1951   1945           BBWAA     247    186     1
## # ... with 29 more rows, and 3 more variables: inducted <fctr>,
## #   category <fctr>, needed_note <chr>
…
